{
  "input": {
    "blocklist": [],
    "compressor#0": {
      "attack": 20.0,
      "boost-amount": 6.0,
      "boost-threshold": -72.0,
      "bypass": false,
      "dry": -100.0,
      "hpf-frequency": 10.0,
      "hpf-mode": "off",
      "input-gain": 3.0,
      "knee": -6.0,
      "lpf-frequency": 20000.0,
      "lpf-mode": "off",
      "makeup": 0.0,
      "mode": "Downward",
      "output-gain": 0.0,
      "ratio": 4.0,
      "release": 100.0,
      "release-threshold": -100.0,
      "sidechain": {
        "lookahead": 0.0,
        "mode": "RMS",
        "preamp": 0.0,
        "reactivity": 10.0,
        "source": "Middle",
        "type": "Feed-forward"
      },
      "threshold": -12.0,
      "wet": 0.0
    },
    "plugins_order": ["stereo_tools#0", "compressor#0", "rnnoise#0"],
    "rnnoise#0": {
      "bypass": false,
      "input-gain": 0.0,
      "model-path": "",
      "output-gain": 0.0
    },
    "stereo_tools#0": {
      "balance-in": 0.0,
      "balance-out": 0.0,
      "bypass": false,
      "delay": 0.0,
      "input-gain": 3.0,
      "middle-level": 0.0,
      "middle-panorama": 0.0,
      "mode": "LR > MS (Stereo to Mid-Side)",
      "mutel": false,
      "muter": false,
      "output-gain": 0.0,
      "phasel": false,
      "phaser": false,
      "sc-level": 1.0,
      "side-balance": 0.0,
      "side-level": 0.0,
      "softclip": false,
      "stereo-base": 0.0,
      "stereo-phase": 0.0
    }
  }
}
